Beasts & Bytes – Data transformations
…
Use parse_number() when the string contains non-numeric text that you want to ignore. This is particularly useful for currency data and percentages:

x <- c("$1,234", "USD 3,513", "59%")
parse_number(x)

[1] 1234 3513   59

Counts

The dplyr::count() is great for quick exploration and checks during analysis:

flights |> count(dest)

# A tibble: 105 × 2
   dest      n
   <chr> <int>
 1 ABQ     254
 2 ACK     265
 3 ALB     439
 4 ANC       8
 5 ATL   17215
 6 AUS    2439
 7 AVL     275
 8 BDL     443
 9 BGR     375
10 BHM     297
# ℹ 95 more rows

Counts

If you want to see the most common values, add sort = TRUE:

flights |> count(dest, sort = TRUE)

# A tibble: 105 × 2
   dest      n
   <chr> <int>
 1 ORD   17283
 2 ATL   17215
 3 LAX   16174
 4 BOS   15508
 5 MCO   14082
 6 CLT   14064
 7 SFO   13331
 8 FLL   12055
 9 MIA   11728
10 DCA    9705
# ℹ 95 more rows
…
|> print(n = Inf).

Counts alternative

Same computation “by hand” with group_by(), summarize() and n().

flights |> 
  group_by(dest) |> 
  summarize(
    n = n(),
    delay = mean(arr_delay, na.rm = TRUE)
  )

# A tibble: 105 × 3
   dest      n delay
   <chr> <int> <dbl>
 1 ABQ     254  4.38
 2 ACK     265  4.85
 3 ALB     439 14.4 
 4 ANC       8 -2.5 
 5 ATL   17215 11.3 
 6 AUS    2439  6.02
 7 AVL     275  8.00
 8 BDL     443  7.05
 9 BGR     375  8.03
10 BHM     297 16.9 
# ℹ 95 more rows

Count distinct

There are a couple of variants of n() and count() that you might find useful:

n_distinct(x) counts the number of distinct (unique) values of one or more variables. For example, we could figure out which destinations are served by the most carriers:

flights |> 
  group_by(dest) |> 
  summarize(carriers = n_distinct(carrier)) |> 
  arrange(desc(carriers))

# A tibble: 105 × 2
   dest  carriers
   <chr>    <int>
 1 ATL          7
 2 BOS          7
 3 CLT          7
 4 ORD          7
 5 TPA          7
 6 AUS          6
 7 DCA          6
 8 DTW          6
 9 IAD          6
10 MSP          6
# ℹ 95 more rows

Weighted count

A weighted count is a sum. For example you could “count” the number of miles each plane flew:

flights |> 
  group_by(tailnum) |> 
  summarize(miles = sum(distance))

# A tibble: 4,044 × 2
   tailnum  miles
   <chr>    <dbl>
 1 D942DN    3418
 2 N0EGMQ  250866
 3 N10156  115966
 4 N102UW   25722
 5 N103US   24619
 6 N104UW   25157
 7 N10575  150194
 8 N105UW   23618
 9 N107US   21677
10 N108UW   32070
# ℹ 4,034 more rows
…
```{r}
#| results: false
flights |> count(tailnum, wt = distance)
```

Counts missing

You can count missing values by combining sum() and is.na(). In the flights dataset this represents flights that are cancelled:

flights |> 
  group_by(dest) |> 
  summarize(n_cancelled = sum(is.na(dep_time))) 

# A tibble: 105 × 2
   dest  n_cancelled
   <chr>       <int>
 1 ABQ             0
 2 ACK             0
 3 ALB            20
 4 ANC             0
 5 ATL           317
 6 AUS            21
 7 AVL            12
 8 BDL            31
 9 BGR            15
10 BHM            25
# ℹ 95 more rows
…
 [1] 1 2 0 1 2 0 1 2 0 1

Modular arithmetic

Modular arithmetic is handy for the flights dataset, because we can use it to unpack the sched_dep_time variable into hour and minute:

flights |> 
  mutate(
    hour = sched_dep_time %/% 100,
    minute = sched_dep_time %% 100,
    .keep = "used"
  )

# A tibble: 336,776 × 3
   sched_dep_time  hour minute
            <int> <dbl>  <dbl>
 1            515     5     15
 2            529     5     29
 3            540     5     40
 4            545     5     45
 5            600     6      0
 6            558     5     58
 7            600     6      0
 8            600     6      0
 9            600     6      0
10            600     6      0
# ℹ 336,766 more rows
…
quantile(x, 0.95) will find the value that’s greater than 95% of the values.

Minimum, maximum, and quantiles

For the flights data, you might want to look at the 95% quantile of delays rather than the maximum, because it will ignore the 5% of most delayed flights which can be quite extreme.

flights |>
  group_by(year, month, day) |>
  summarize(
    max = max(dep_delay, na.rm = TRUE),
    q95 = quantile(dep_delay, 0.95, na.rm = TRUE),
    .groups = "drop"
  )

# A tibble: 365 × 5
    year month   day   max   q95
   <int> <int> <int> <dbl> <dbl>
 1  2013     1     1   853  70.1
 2  2013     1     2   379  85  
 3  2013     1     3   291  68  
 4  2013     1     4   288  60  
 5  2013     1     5   327  41  
 6  2013     1     6   202  51  
 7  2013     1     7   366  51.6
 8  2013     1     8   188  35.3
 9  2013     1     9  1301  27.2
10  2013     1    10  1126  31  
# ℹ 355 more rows
…
For example, we can find the first, fifth and last departure for each day:

flights |> 
  group_by(year, month, day) |> 
  summarize(
    first_dep = first(dep_time, na_rm = TRUE), 
    fifth_dep = nth(dep_time, 5, na_rm = TRUE),
    last_dep = last(dep_time, na_rm = TRUE)
  )

`summarise()` has grouped output by 'year', 'month'. You can override using the
`.groups` argument.

# A tibble: 365 × 6
# Groups:   year, month [12]
    year month   day first_dep fifth_dep last_dep
   <int> <int> <int>     <int>     <int>    <int>
 1  2013     1     1       517       554     2356
 2  2013     1     2        42       535     2354
 3  2013     1     3        32       520     2349
 4  2013     1     4        25       531     2358
 5  2013     1     5        14       534     2357
 6  2013     1     6        16       555     2355
 7  2013     1     7        49       536     2359
 8  2013     1     8       454       544     2351
 9  2013     1     9         2       524     2252
10  2013     1    10         3       530     2320
# ℹ 355 more rows
…
