Beasts & Bytes – Data transformations
…
Comparisons

This is particularly useful for more complicated logic because naming the intermediate steps makes it easier to both read your code and check that each step has been computed correctly.

All up, the initial filter is equivalent to:

flights |> 
  mutate(
    daytime = dep_time > 600 & dep_time < 2000,
    approx_ontime = abs(arr_delay) < 20,
  ) |> 
  filter(daytime & approx_ontime)

# A tibble: 172,286 × 21
    year month   day dep_time sched_dep_time dep_delay arr_time sched_arr_time
   <int> <int> <int>    <int>          <int>     <dbl>    <int>          <int>
 1  2013     1     1      601            600         1      844            850
 2  2013     1     1      602            610        -8      812            820
 3  2013     1     1      602            605        -3      821            805
 4  2013     1     1      606            610        -4      858            910
 5  2013     1     1      606            610        -4      837            845
 6  2013     1     1      607            607         0      858            915
 7  2013     1     1      611            600        11      945            931
 8  2013     1     1      613            610         3      925            921
 9  2013     1     1      615            615         0      833            842
10  2013     1     1      622            630        -8     1017           1014
# ℹ 172,276 more rows
# ℹ 13 more variables: arr_delay <dbl>, carrier <chr>, flight <int>,
#   tailnum <chr>, origin <chr>, dest <chr>, air_time <dbl>, distance <dbl>,
#   hour <dbl>, minute <dbl>, time_hour <dttm>, daytime <lgl>,
#   approx_ontime <lgl>
…
[1] FALSE  TRUE FALSE

is.na(c("a", NA, "b"))

[1] FALSE  TRUE FALSE

Missing values

We can use is.na() to find all the rows with a missing dep_time:

flights |> 
  filter(is.na(dep_time))

# A tibble: 8,255 × 19
    year month   day dep_time sched_dep_time dep_delay arr_time sched_arr_time
   <int> <int> <int>    <int>          <int>     <dbl>    <int>          <int>
 1  2013     1     1       NA           1630        NA       NA           1815
 2  2013     1     1       NA           1935        NA       NA           2240
 3  2013     1     1       NA           1500        NA       NA           1825
 4  2013     1     1       NA            600        NA       NA            901
 5  2013     1     2       NA           1540        NA       NA           1747
 6  2013     1     2       NA           1620        NA       NA           1746
 7  2013     1     2       NA           1355        NA       NA           1459
 8  2013     1     2       NA           1420        NA       NA           1644
 9  2013     1     2       NA           1321        NA       NA           1536
10  2013     1     2       NA           1545        NA       NA           1910
# ℹ 8,245 more rows
# ℹ 11 more variables: arr_delay <dbl>, carrier <chr>, flight <int>,
#   tailnum <chr>, origin <chr>, dest <chr>, air_time <dbl>, distance <dbl>,
#   hour <dbl>, minute <dbl>, time_hour <dttm>

Missing values

is.na() can also be useful in arrange(). arrange() usually puts all the missing values at the end but you can override this default by first sorting by is.na():

flights |> 
  filter(month == 1, day == 1) |> 
  arrange(dep_time)

# A tibble: 842 × 19
    year month   day dep_time sched_dep_time dep_delay arr_time sched_arr_time
   <int> <int> <int>    <int>          <int>     <dbl>    <int>          <int>
 1  2013     1     1      517            515         2      830            819
 2  2013     1     1      533            529         4      850            830
 3  2013     1     1      542            540         2      923            850
 4  2013     1     1      544            545        -1     1004           1022
 5  2013     1     1      554            600        -6      812            837
 6  2013     1     1      554            558        -4      740            728
 7  2013     1     1      555            600        -5      913            854
 8  2013     1     1      557            600        -3      709            723
 9  2013     1     1      557            600        -3      838            846
10  2013     1     1      558            600        -2      753            745
# ℹ 832 more rows
# ℹ 11 more variables: arr_delay <dbl>, carrier <chr>, flight <int>,
#   tailnum <chr>, origin <chr>, dest <chr>, air_time <dbl>, distance <dbl>,
#   hour <dbl>, minute <dbl>, time_hour <dttm>

Missing values

is.na() can also be useful in arrange(). arrange() usually puts all the missing values at the end but you can override this default by first sorting by is.na():

flights |>    
  filter(month == 1, day == 1) |>    
  arrange(desc(is.na(dep_time)), dep_time)

# A tibble: 842 × 19
    year month   day dep_time sched_dep_time dep_delay arr_time sched_arr_time
   <int> <int> <int>    <int>          <int>     <dbl>    <int>          <int>
 1  2013     1     1       NA           1630        NA       NA           1815
 2  2013     1     1       NA           1935        NA       NA           2240
 3  2013     1     1       NA           1500        NA       NA           1825
 4  2013     1     1       NA            600        NA       NA            901
 5  2013     1     1      517            515         2      830            819
 6  2013     1     1      533            529         4      850            830
 7  2013     1     1      542            540         2      923            850
 8  2013     1     1      544            545        -1     1004           1022
 9  2013     1     1      554            600        -6      812            837
10  2013     1     1      554            558        -4      740            728
# ℹ 832 more rows
# ℹ 11 more variables: arr_delay <dbl>, carrier <chr>, flight <int>,
#   tailnum <chr>, origin <chr>, dest <chr>, air_time <dbl>, distance <dbl>,
#   hour <dbl>, minute <dbl>, time_hour <dttm>
…
Order of operations

Note that the order of operations doesn’t work like English. Take the following code that finds all flights that departed in November or December:

flights |> 
   filter(month == 11 | month == 12)

Order of operations

You might be tempted to write it like you’d say in English: “Find all flights that departed in November or December.”:

flights |> 
   filter(month == 11 | 12)

# A tibble: 336,776 × 19
    year month   day dep_time sched_dep_time dep_delay arr_time sched_arr_time
   <int> <int> <int>    <int>          <int>     <dbl>    <int>          <int>
 1  2013     1     1      517            515         2      830            819
 2  2013     1     1      533            529         4      850            830
 3  2013     1     1      542            540         2      923            850
 4  2013     1     1      544            545        -1     1004           1022
 5  2013     1     1      554            600        -6      812            837
 6  2013     1     1      554            558        -4      740            728
 7  2013     1     1      555            600        -5      913            854
 8  2013     1     1      557            600        -3      709            723
 9  2013     1     1      557            600        -3      838            846
10  2013     1     1      558            600        -2      753            745
# ℹ 336,766 more rows
# ℹ 11 more variables: arr_delay <dbl>, carrier <chr>, flight <int>,
#   tailnum <chr>, origin <chr>, dest <chr>, air_time <dbl>, distance <dbl>,
#   hour <dbl>, minute <dbl>, time_hour <dttm>
…
Here, R first evaluates month == 11 creating a logical vector, which we call nov.

Order of operations

It computes nov | 12. When you use a number with a logical operator it converts everything apart from 0 to TRUE, so this is equivalent to nov | TRUE which will always be TRUE, so every row will be selected:

flights |> 
  mutate(
    nov = month == 11,
    final = nov | 12,
    .keep = "used"
  )

# A tibble: 336,776 × 3
   month nov   final
   <int> <lgl> <lgl>
 1     1 FALSE TRUE 
 2     1 FALSE TRUE 
 3     1 FALSE TRUE 
 4     1 FALSE TRUE 
 5     1 FALSE TRUE 
 6     1 FALSE TRUE 
 7     1 FALSE TRUE 
 8     1 FALSE TRUE 
 9     1 FALSE TRUE 
10     1 FALSE TRUE 
# ℹ 336,766 more rows
…
flights |> 
  filter(month %in% c(11, 12))

%in%

Note that %in% obeys different rules for NA to ==, as NA %in% NA is TRUE.

%in%

This can make for a useful shortcut:

flights |> 
  filter(dep_time %in% c(NA, 0800))

# A tibble: 8,803 × 19
    year month   day dep_time sched_dep_time dep_delay arr_time sched_arr_time
   <int> <int> <int>    <int>          <int>     <dbl>    <int>          <int>
 1  2013     1     1      800            800         0     1022           1014
 2  2013     1     1      800            810       -10      949            955
 3  2013     1     1       NA           1630        NA       NA           1815
 4  2013     1     1       NA           1935        NA       NA           2240
 5  2013     1     1       NA           1500        NA       NA           1825
 6  2013     1     1       NA            600        NA       NA            901
 7  2013     1     2      800            810       -10     1102           1116
 8  2013     1     2       NA           1540        NA       NA           1747
 9  2013     1     2       NA           1620        NA       NA           1746
10  2013     1     2       NA           1355        NA       NA           1459
# ℹ 8,793 more rows
# ℹ 11 more variables: arr_delay <dbl>, carrier <chr>, flight <int>,
#   tailnum <chr>, origin <chr>, dest <chr>, air_time <dbl>, distance <dbl>,
#   hour <dbl>, minute <dbl>, time_hour <dttm>
…
You can make the missing values go away with na.rm = TRUE.

Logical summaries

For example, we could use all() and any() to find out if every flight was delayed on departure by at most an hour or if any flights were delayed on arrival by five hours or more. And using group_by() allows us to do that by day:

flights |> 
  group_by(year, month, day) |> 
  summarize(
    all_delayed = all(dep_delay <= 60, na.rm = TRUE),
    any_long_delay = any(arr_delay >= 300, na.rm = TRUE),
    .groups = "drop"
  )

# A tibble: 365 × 5
    year month   day all_delayed any_long_delay
   <int> <int> <int> <lgl>       <lgl>         
 1  2013     1     1 FALSE       TRUE          
 2  2013     1     2 FALSE       TRUE          
 3  2013     1     3 FALSE       FALSE         
 4  2013     1     4 FALSE       FALSE         
 5  2013     1     5 FALSE       TRUE          
 6  2013     1     6 FALSE       FALSE         
 7  2013     1     7 FALSE       TRUE          
 8  2013     1     8 FALSE       FALSE         
 9  2013     1     9 FALSE       TRUE          
10  2013     1    10 FALSE       TRUE          
# ℹ 355 more rows
…
mean(x) gives the proportion of TRUEs (because mean() is just sum() divided by length()).

Numeric summaries of logical vectors

That, for example, allows us to see the proportion of flights that were delayed on departure by at most an hour and the number of flights that were delayed on arrival by five hours or more:

flights |> 
  group_by(year, month, day) |> 
  summarize(
    proportion_delayed = mean(dep_delay <= 60, na.rm = TRUE),
    count_long_delay = sum(arr_delay >= 300, na.rm = TRUE),
    .groups = "drop"
  )

# A tibble: 365 × 5
    year month   day proportion_delayed count_long_delay
   <int> <int> <int>              <dbl>            <int>
 1  2013     1     1              0.939                3
 2  2013     1     2              0.914                3
 3  2013     1     3              0.941                0
 4  2013     1     4              0.953                0
 5  2013     1     5              0.964                1
 6  2013     1     6              0.959                0
 7  2013     1     7              0.956                1
 8  2013     1     8              0.975                0
 9  2013     1     9              0.986                1
10  2013     1    10              0.977                2
# ℹ 355 more rows
…
Logical subsetting example

Imagine we wanted to look at the average delay just for flights that were actually delayed. One way to do so would be to first filter the flights and then calculate the average delay:

flights |> 
  filter(arr_delay > 0) |> 
  group_by(year, month, day) |> 
  summarize(
    behind = mean(arr_delay),
    n = n(),
    .groups = "drop"
  )

# A tibble: 365 × 5
    year month   day behind     n
   <int> <int> <int>  <dbl> <int>
 1  2013     1     1   32.5   461
 2  2013     1     2   32.0   535
 3  2013     1     3   27.7   460
 4  2013     1     4   28.3   297
 5  2013     1     5   22.6   238
 6  2013     1     6   24.4   381
 7  2013     1     7   27.8   243
 8  2013     1     8   20.8   275
 9  2013     1     9   25.6   287
10  2013     1    10   27.3   220
# ℹ 355 more rows
…
Logical subsetting example

This leads to:

flights |> 
  group_by(year, month, day) |> 
  summarize(
    behind = mean(arr_delay[arr_delay > 0], na.rm = TRUE),
    ahead = mean(arr_delay[arr_delay < 0], na.rm = TRUE),
    n = n(),
    .groups = "drop"
  )

# A tibble: 365 × 6
    year month   day behind ahead     n
   <int> <int> <int>  <dbl> <dbl> <int>
 1  2013     1     1   32.5 -12.5   842
 2  2013     1     2   32.0 -14.3   943
 3  2013     1     3   27.7 -18.2   914
 4  2013     1     4   28.3 -17.0   915
 5  2013     1     5   22.6 -14.0   720
 6  2013     1     6   24.4 -13.6   832
 7  2013     1     7   27.8 -17.0   933
 8  2013     1     8   20.8 -14.3   899
 9  2013     1     9   25.6 -13.0   902
10  2013     1    10   27.3 -16.4   932
# ℹ 355 more rows
…
flights |> 
  mutate(
    status = case_when(
      is.na(arr_delay)      ~ "cancelled",
      arr_delay < -30       ~ "very early",
      arr_delay < -15       ~ "early",
      abs(arr_delay) <= 15  ~ "on time",
      arr_delay < 60        ~ "late",
      arr_delay < Inf       ~ "very late",
    ),
    .keep = "used"
  )

# A tibble: 336,776 × 2
   arr_delay status 
       <dbl> <chr>  
 1        11 on time
 2        20 late   
 3        33 late   
 4       -18 early  
 5       -25 early  
 6        12 on time
 7        19 late   
 8       -14 on time
 9        -8 on time
10         8 on time
# ℹ 336,766 more rows
…
